<?xml version="1.0" encoding="UTF-8"?>
<session version="1.0">
<refactoring comment="Delete resource &apos;vs_a1a2&apos;" deleteContents="false" description="Delete resource &apos;vs_a1a2&apos;" element1="/vs_a1a2" flags="7" id="org.eclipse.ltk.core.refactoring.delete.resources" resources="1" stamp="1528714214082"/>
</session>